{
    "version": "https://jsonfeed.org/version/1",
    "title": "gitlab xyz",
    "description": "",
    "home_page_url": "https://mi5cha.gitlab.io/mischaxyz",
    "feed_url": "https://mi5cha.gitlab.io/mischaxyz/feed.json",
    "user_comment": "",
    "author": {
        "name": "Mischa"
    },
    "items": [
        {
            "id": "https://mi5cha.gitlab.io/mischaxyz/hello-world.html",
            "url": "https://mi5cha.gitlab.io/mischaxyz/hello-world.html",
            "title": "Hello World",
            "summary": "Hi!",
            "content_html": "Hi!",
            "author": {
                "name": "Mischa"
            },
            "tags": [
            ],
            "date_published": "2019-08-16T20:44:47+01:00",
            "date_modified": "2019-08-16T20:44:47+01:00"
        }
    ]
}
